#############################################################################################
# abuse.ch ZeuS IP blocklist "BadIPs" (excluding hijacked sites and free hosting providers) #
#                                                                                           #
# For questions please refer to https://zeustracker.abuse.ch/blocklist.php                  #
#############################################################################################

103.11.74.118
103.23.201.219
103.241.0.100
103.4.52.150
103.7.59.135
107.160.185.173
107.161.123.138
108.171.248.154
108.61.63.78
109.127.8.242
109.163.233.100
109.229.210.250
109.229.36.65
109.235.59.44
109.68.33.64
112.124.96.196
113.108.204.30
116.193.76.135
121.199.57.56
123.30.129.179
124.150.141.42
128.210.157.251
141.105.67.94
141.255.166.202
141.255.166.203
142.0.78.145
142.0.78.47
144.76.240.101
146.185.174.81
148.251.7.40
149.154.64.20
15.185.99.202
151.248.125.64
151.97.190.239
159.253.147.248
16.54.12.15
162.211.84.6
173.193.105.244
173.193.204.119
173.230.253.193
173.242.112.135
173.249.152.23
174.140.165.210
176.119.2.90
176.119.2.91
176.215.86.120
176.99.7.78
178.19.99.42
178.217.186.175
178.217.186.227
178.63.165.150
180.151.58.244
181.50.248.15
182.71.19.180
184.171.165.222
184.22.228.51
184.72.233.8
185.10.57.154
185.12.46.133
185.20.227.39
185.24.233.119
185.24.233.254
185.24.233.5
185.25.117.244
185.25.117.49
185.25.48.107
185.26.144.89
185.5.55.248
186.64.120.104
188.138.125.186
188.187.163.231
188.219.154.228
188.247.135.53
188.247.135.58
188.247.135.74
188.247.135.99
188.40.126.207
190.128.29.1
190.15.192.25
190.96.85.117
192.157.212.215
192.187.100.182
192.225.175.71
192.64.177.143
192.95.12.34
193.107.19.24
193.120.55.242
193.169.244.174
195.13.249.204
195.3.146.47
195.64.154.38
195.88.242.213
198.20.107.130
198.245.202.92
198.27.110.42
198.50.198.162
198.50.252.25
198.58.93.4
199.127.101.208
199.175.54.62
199.195.214.36
199.201.121.169
199.231.186.170
199.7.234.100
2.95.113.206
202.29.230.198
203.170.193.23
204.93.211.115
208.73.210.89
209.59.216.46
210.211.108.215
212.193.228.167
212.225.213.253
212.44.64.202
213.147.67.20
213.152.26.146
216.12.197.227
216.176.100.240
216.215.112.149
216.240.159.134
217.23.1.188
217.23.138.114
222.29.197.232
23.227.196.105
23.227.196.7
23.227.196.73
23.227.196.95
27.124.125.18
31.148.219.85
31.170.164.5
31.204.154.16
31.220.3.10
31.6.71.83
31.7.63.146
33.12.12.90
37.0.123.127
37.0.123.149
37.0.123.150
37.0.123.153
37.0.123.84
37.0.127.101
37.143.11.189
37.143.11.69
37.143.14.207
37.221.170.156
41.186.24.58
41.71.188.2
42.121.195.54
46.102.246.202
46.149.111.85
46.165.197.206
46.166.131.154
46.166.141.107
46.166.145.113
46.166.168.173
46.19.143.249
46.21.157.219
46.22.211.47
46.4.150.111
49.50.8.213
5.135.127.68
5.175.147.4
5.45.179.132
5.63.158.126
50.76.104.42
54.186.35.58
54.244.115.238
54.254.175.47
59.157.4.2
60.13.186.5
64.127.71.73
64.85.233.8
65.200.132.20
65.61.198.117
65.75.164.128
66.45.253.74
66.96.160.153
68.89.11.90
77.40.126.92
78.110.9.77
78.46.75.138
79.143.178.105
79.143.190.212
80.255.3.67
80.255.3.68
80.255.3.70
82.131.180.72
83.15.254.242
83.222.112.221
83.69.233.121
85.10.234.166
85.15.231.135
85.25.4.28
86.106.188.120
87.236.211.157
87.236.211.7
87.246.143.242
87.254.167.37
88.150.194.253
88.27.247.141
89.248.160.159
89.31.143.20
89.32.150.234
89.36.31.215
89.46.251.146
89.46.251.158
89.46.251.169
91.194.91.202
91.203.146.51
91.218.121.136
91.226.212.11
91.226.212.170
91.227.18.17
91.228.160.170
91.228.160.201
91.229.20.134
91.229.20.214
91.229.20.243
91.230.60.107
91.230.60.208
91.234.104.30
91.237.88.230
91.239.15.219
91.240.22.8
93.170.131.175
93.174.88.3
93.186.120.112
93.90.182.90
94.100.30.250
94.103.36.55
95.154.208.106
95.173.183.91
96.127.169.2
97.79.238.65
98.130.211.186
98.131.185.136
